75639902.43244468
49870954.99495794
58307530.93729536
87740568.83666971
114782200.04794653
110952063.06898424
155448790.29227126
131966496.63720833
143149221.45766562
170189628.93450144
142310490.71091735
181317787.131612
158862535.79208714
190466625.73854592
167174074.22263902
187860520.62900347
168915558.842795
189659994.171492
186880283.68859565
190156791.09270093
200267748.65499446
192241723.55760008
207384864.364929
188578756.69565132
199537074.89749044
201126304.2657282
213296582.63375318
207255721.2583038
205135670.22717282
191561776.25024143
208947911.32406393
202069949.0644813
216310422.18305066
201487738.43544912
200020031.92658454
207477526.16203833
223709707.32298157
204430806.78894615
209628100.94695905
203911085.96372667
204006089.58952394
231273305.45165047
205592022.76693907
233307339.44093287
210073009.21698326
236774227.2943721
215348757.78990796
207695596.82817206
211105016.07988766
220273581.53545552
229034167.33172473
216672771.7535791
223509499.0775663
227996237.2758723
226663022.05861005
226907052.21308038
228657863.4211591
233951518.74964184
234086638.68231165
235957594.27433085
235518320.69486898
238427821.15375584
238611802.65944228
233644448.02084133
231714813.93340355
236011177.88095993
237720574.8917446
240000317.26640627
245481601.82255983
245916567.9291258
244655955.9889639
246381059.60765842
246222514.02860522
252721947.52484265
257308056.56506026
255953417.66403565
260371986.59763682
254196008.84332728
260996596.75707427
257857992.58078974
257295764.25205058
255996774.7693718
258591022.60735705
257228541.13147748
259299427.49484372
260211693.38559383
257529757.81735164
258075048.6074764
258002888.2148018
260886011.21937048
262348807.99412695
263608581.73741505
261560633.8921667
262219889.67446598
261374950.43216088
262061527.08766025
261743728.50128266
261323808.41898134
262104501.58004156
259990423.84951603
264000357.77907678
